{
    "data": [
        {
            "id": 1,
            "key": "Primaria"
        },
        {
            "id": 2,
            "key": "Secundaria (Bachillerato)"
        },
        {
            "id": 3,
            "key": "Técnico"
        },
        {
            "id": 4,
            "key": "Técnico Superior"
        },
        {
            "id": 5,
            "key": "Grado"
        },
        {
            "id": 6,
            "key": "Maestría/Postgrado"
        },
        {
            "id": 7,
            "key": "Doctorado"
        },
        {
            "id": 8,
            "key": "Otro"
        }
    ]
}